﻿wavelength,370,400,420,450,530,620,660,735,850,6500k
324,0.000889296,0.001189171,0.000660957,0.000801594,0.002248643,0.000914093,0.000900483,0.001369506,0.000323385,0.003528306
326,0.001326795,0.001720433,0.001329943,0.001948077,0.002247609,0.001809229,0.001235389,0.00262423,0.000483636,0.005269707
327,0.001478819,0.00265939,0.001354948,0.001334368,0.002417477,0.001715406,0.000666215,0.002289083,0.00040029,0.005580712
329,0.000928141,0.001812508,0.00265958,0.00184313,0.003473846,0.00163244,0.001423475,0.001513173,0.000384893,0.006074103
331,0.001102846,0.003154506,0.000928609,0.001707857,0.002812052,0.001038944,0.001126104,0.001463078,0.000459715,0.005589976
333,0.001153674,0.001170744,0.000795319,0.00034448,0.002391693,0.001056657,0.001083536,0.001154883,0.000355984,0.005711795
335,0.000490166,0.00064736,0.001199372,0.001683146,0.00026231,0.000234829,0.000105044,0.00161328,0.00028051,0.004158296
337,0.000971953,0.001470368,0.000214042,0.001112507,0.001521401,0.000478948,0.001156021,0.000965148,0.000229587,0.003127406
339,0.000934734,0.000699262,0.000475028,0.000987605,0.001038917,0.000438463,0.000360569,0.000784181,0.000257445,0.004187962
341,0.000569322,0.001119788,0.000633919,0.000527179,0.001525064,0.000461006,0.000838971,0.000981882,0.000296523,0.00330722
343,0.000648364,0.000818403,0.000492786,0.000630477,0.000829042,0.000233258,0.000154931,0.000463531,0.000220112,0.002478292
344,0.000562886,0.001081311,0.000550923,0.000966427,0.001581437,0.000202251,0.00026136,0.000410524,0.000142735,0.002933344
346,0.000514334,0.000841452,0.000412838,0.000495178,0.000625087,0.000275358,0.000445013,0.000291247,0.000162376,0.00195039
348,0.000526969,0.000700832,0.000327315,0.000587708,0.000715859,0.000357883,0.000330105,0.00050031,0.000177583,0.002417024
350,0.000890761,0.000749662,0.000537559,0.000323518,0.000711593,0.000340283,0.000379949,0.000302722,0.000146945,0.002298156
352,0.001022223,0.00120257,0.000680782,0.000396306,0.001012462,9.14006E-05,0.000270298,0.000516135,0.000191505,0.002562627
354,0.001905691,0.001194008,0.000264497,0.000357435,0.000752012,0.000177554,0.000463305,0.000315346,0.000174916,0.001729249
356,0.003622381,0.000963764,0.000439346,0.000510441,0.000989139,0.000137344,0.00067904,0.000529341,0.000137145,0.00232966
358,0.008167004,0.001019227,0.00058262,0.00052665,0.00047091,0.000269241,0.000251439,0.000503355,0.000172015,0.002258363
360,0.016685979,0.001243753,0.000919468,0.000439155,0.000597845,0.000187671,0.00056588,0.000372249,0.000167146,0.002043178
361,0.0310017,0.001243083,0.000828221,0.000658377,0.000799135,0.000272538,0.000540476,0.000521277,0.00017013,0.002244108
363,0.051800644,0.00142674,0.000429001,0.000569833,0.000912189,0.000339981,0.000681878,0.000444446,0.00014685,0.002455344
365,0.077933299,0.001187054,0.000558276,0.000169266,0.000686804,0.000136633,0.000176566,0.000391114,0.000154583,0.001843407
367,0.104408794,0.001222208,0.000407592,0.000823864,0.00089143,0.000405352,0.000396643,0.00031843,0.000160706,0.001951488
369,0.122200873,0.001532121,0.00087956,0.000228581,0.000480913,3.07521E-05,0.00025678,0.000410051,0.000133713,0.002003949
371,0.123154626,0.001777568,0.001086796,0.000487343,0.000629178,0.000190734,0.000373271,0.000299667,0.000165329,0.002089809
373,0.107766206,0.002469024,0.000845512,0.000407309,0.000766737,0.000299943,0.000349188,0.000252173,0.00014536,0.002042817
375,0.083757523,0.003033605,0.000917394,0.000497558,0.000763304,0.000206395,0.000547295,0.000390195,0.000143791,0.001698986
377,0.060454948,0.004278071,0.001022318,0.000641644,0.000949192,0.000253576,0.000337875,0.000265354,0.000127873,0.001910749
378,0.043081343,0.005919073,0.000877647,0.000407639,0.000735116,1.5669E-05,0.000348897,0.000376764,0.000121984,0.001720276
380,0.030799009,0.008760668,0.001140779,0.000376465,0.000594037,0.000253239,0.000190309,0.000487132,0.000128219,0.001865468
382,0.021946202,0.013472125,0.001478398,0.000548868,0.000731353,0.000182143,0.000400776,0.000338966,0.00014478,0.002144424
384,0.015736062,0.021566342,0.001887081,0.000570666,0.000619075,0.000153549,0.000140233,0.000335646,0.000138078,0.001733371
386,0.011375444,0.033665696,0.002348513,0.000610333,0.000421914,0.000206451,0.00029384,0.000338464,0.000116889,0.001778042
388,0.008474923,0.053008311,0.003373882,0.000598795,0.000755887,0.000184135,0.000490085,0.000261627,0.000123174,0.002200915
390,0.006495587,0.081874299,0.004811355,0.000589404,0.000442876,0.000167653,0.000293223,0.000396191,0.000126207,0.001588692
392,0.004888039,0.124363211,0.00726154,0.00071495,0.000559699,0.000152108,0.000308185,0.000317826,0.000109387,0.002043883
394,0.003765324,0.182943606,0.010593191,0.000609027,0.000519462,0.000101866,0.000360571,0.000304961,0.000101906,0.002133207
396,0.003036701,0.257257025,0.01566321,0.000702244,0.00072155,0.000180164,0.000293536,0.000441852,0.000116312,0.002163186
397,0.002316009,0.342173044,0.023325952,0.000876429,0.000717083,0.000104809,0.000382881,0.000362749,0.000126421,0.002536449
399,0.001812753,0.42691282,0.034405862,0.00103341,0.000645467,0.000108617,0.000253946,0.000370388,0.000114248,0.00266194
401,0.001443967,0.49576783,0.050187453,0.001060779,0.00099754,0.000229204,0.000306938,0.000193791,0.00012619,0.003354164
403,0.001164701,0.535473691,0.072499015,0.001423781,0.000807778,0.000206614,0.000494205,0.000418709,0.000124609,0.004253209
405,0.001019636,0.541297983,0.103003703,0.001671053,0.000703149,8.99261E-05,0.000500588,0.000453985,0.000107172,0.005292803
407,0.000796918,0.519363273,0.143962473,0.002008862,0.000815342,0.00015322,0.000284307,0.000386094,0.000106274,0.006752798
409,0.000592158,0.47994504,0.197040805,0.002951917,0.000809356,0.000168994,0.000176387,0.000457141,0.000113046,0.009037379
411,0.000695703,0.432408575,0.2618782,0.003937446,0.000720351,0.000171689,0.000375884,0.000439374,0.000121224,0.012709667
412,0.000670475,0.380919676,0.335103327,0.005867394,0.000761405,0.000174034,0.000363296,0.000258145,0.000107768,0.017756812
414,0.000580343,0.327490056,0.408766472,0.008047251,0.000848135,0.000229216,0.000196522,0.000219208,9.41796E-05,0.024309959
416,0.000591931,0.275028227,0.469519666,0.01153551,0.000883682,8.07246E-05,0.00034545,0.000366149,0.000120335,0.0331633
418,0.00061284,0.225836656,0.503111304,0.016465915,0.001118513,0.000123179,0.000323494,0.000451662,0.000122591,0.044778597
420,0.000503069,0.182759609,0.499691522,0.02255851,0.000809343,0.000144519,0.00047291,0.000375674,0.000101585,0.058859732
422,0.00046275,0.146337099,0.460715406,0.03082525,0.00094447,0.000164886,0.000320185,0.00045263,0.000106141,0.076552156
424,0.000425344,0.116851946,0.396836609,0.041622466,0.001029197,0.000285813,0.000392522,0.000361705,0.000110603,0.097679478
426,0.000520586,0.093004886,0.325347726,0.054929447,0.001196014,0.000176916,0.000407782,0.000382696,0.000113075,0.121904726
428,0.000447518,0.073448426,0.260163516,0.07168141,0.001327117,0.000227504,0.000301533,0.000374953,0.000114743,0.148661624
429,0.000474886,0.058424333,0.207419865,0.091883462,0.001383388,0.000332613,0.000480121,0.000433145,0.000118554,0.177046198
431,0.00060072,0.046481041,0.166151529,0.116095309,0.001830889,0.000513402,0.000615518,0.000599042,0.000181639,0.205166635
433,0.000718417,0.037011577,0.133966137,0.143701361,0.002368853,0.000592291,0.001030338,0.000822209,0.000222797,0.23305417
435,0.000635321,0.029302743,0.107395238,0.174862219,0.002536843,0.000622118,0.001005421,0.000753062,0.000198088,0.259606223
437,0.000520226,0.02310165,0.085051418,0.208796909,0.002291053,0.000431275,0.000639134,0.000536134,0.000159853,0.286052299
439,0.000356717,0.018069022,0.066810912,0.244884386,0.002145459,0.000246783,0.000399926,0.000301665,0.000116097,0.313798845
441,0.000335288,0.014540864,0.052622796,0.283224731,0.002259116,0.000240766,0.000381975,0.000382441,0.000109408,0.343314275
443,0.000330593,0.011621113,0.04188431,0.321333,0.002413242,0.000232268,0.00027896,0.000354708,8.62366E-05,0.371687157
445,0.000254955,0.009629423,0.033472608,0.35794411,0.002818497,0.000170744,0.000349826,0.000390511,0.000105756,0.393434307
446,0.000342703,0.007527894,0.027281682,0.389592043,0.00290697,0.000233146,0.000322269,0.000423551,0.000118641,0.401468651
448,0.00029468,0.006283772,0.022382755,0.412519526,0.003039536,0.000154232,0.00045337,0.00037498,9.16635E-05,0.39116106
450,0.000308772,0.005198304,0.01828038,0.422609031,0.003463157,0.000249035,0.000329026,0.000423782,0.000108526,0.362390142
452,0.000309938,0.004385275,0.01495553,0.417289141,0.003686533,0.000262632,0.00038311,0.000304338,0.000106016,0.320198773
454,0.00029278,0.003684773,0.012242769,0.396548456,0.003881982,0.000267329,0.000332172,0.000382616,0.000104792,0.273444742
456,0.000286284,0.003093493,0.010018403,0.362691485,0.004311983,0.000352679,0.000408265,0.000388968,0.000105387,0.23088907
458,0.000218783,0.002609971,0.008290823,0.321456918,0.004792358,0.000268445,0.000263311,0.000325214,0.000118808,0.196202244
460,0.000281001,0.002337461,0.006806964,0.278488406,0.005196499,0.000310247,0.000361315,0.000356934,0.000109229,0.170423118
461,0.000239265,0.002106932,0.005862813,0.238079086,0.005779087,0.000260661,0.000475252,0.000429141,0.000120823,0.151407581
463,0.000245406,0.001918645,0.004911551,0.20270258,0.006492057,0.000330108,0.000306266,0.000371728,0.000116333,0.136252809
465,0.000264394,0.00148956,0.004180108,0.173249262,0.007245232,0.000262816,0.000196943,0.0003609,0.000111143,0.123220697
467,0.000224706,0.001325507,0.003540974,0.148565135,0.008329819,0.000221229,0.000376557,0.000386871,0.000134446,0.111304586
469,0.000176632,0.001410381,0.003156852,0.126936155,0.009832494,0.000250809,0.00027254,0.000345471,0.000132944,0.099837376
471,0.000311291,0.00115501,0.00258928,0.108321463,0.0115697,0.000270288,0.000520823,0.000310563,0.000122495,0.090262814
473,0.000173818,0.001016691,0.002221782,0.091267903,0.01374493,0.00033516,0.000378975,0.000331974,0.000115765,0.083014958
475,0.000220539,0.001170993,0.002009653,0.076238406,0.016550828,0.000358345,0.000491362,0.00032254,0.000117707,0.078385402
476,0.000175774,0.000929035,0.001792379,0.063415078,0.020290391,0.000300096,0.000346389,0.000331851,0.000126229,0.07555925
478,0.000276094,0.000845292,0.001532689,0.05223541,0.024531196,0.000237379,0.000414173,0.000511147,0.000130964,0.074809041
480,0.000209419,0.000984056,0.001383534,0.043040926,0.029648058,0.000358579,0.000503962,0.000481159,0.000144952,0.075315399
482,0.000317198,0.001022033,0.001498662,0.035673127,0.036123809,0.000433392,0.000704483,0.000625102,0.000173718,0.077197012
484,0.000347661,0.001183056,0.00138318,0.029746308,0.043850137,0.000521758,0.00085948,0.000651726,0.000194652,0.080173407
486,0.000536613,0.001205254,0.000936934,0.024809783,0.05276524,0.000548919,0.000938872,0.000793477,0.000204223,0.084483715
488,0.000330371,0.001027633,0.001021917,0.020524812,0.063311158,0.000554026,0.000972366,0.000771372,0.000192101,0.089357332
490,0.000393416,0.00086255,0.000904043,0.016915926,0.075765207,0.000491682,0.000806445,0.000736989,0.000174983,0.095436669
491,0.000238071,0.000869756,0.000923722,0.014001199,0.090460317,0.000436434,0.000809017,0.000557142,0.000154833,0.102310122
493,0.000281494,0.000888188,0.000607504,0.011521912,0.107579948,0.000315569,0.000593597,0.000614004,0.000154582,0.11023746
495,0.000199281,0.000543374,0.000701345,0.009285983,0.127285743,0.000268442,0.000531636,0.000492756,0.000128804,0.11803352
497,0.000179183,0.000526964,0.000427137,0.007649811,0.149254668,0.000279906,0.000591429,0.000346965,0.000118698,0.126016416
499,0.000216107,0.000415584,0.000471874,0.006238453,0.174410998,0.000304581,0.000423875,0.0003144,0.000108508,0.133865543
501,9.80272E-05,0.000353084,0.000491713,0.005223669,0.202124029,0.00023146,0.000238085,0.000315304,0.000112584,0.141409092
503,0.000199725,0.000338308,0.000451719,0.004238508,0.23189255,0.000226096,0.000485857,0.000276186,0.000105265,0.148653531
504,0.000160541,0.000185041,0.000329972,0.003626143,0.264079641,0.00010548,0.000302759,0.000270199,9.90337E-05,0.156078807
506,0.000244128,0.000252328,0.000350619,0.003098049,0.297336658,0.000274595,0.000320728,0.00028583,9.33137E-05,0.163008409
508,0.000172028,0.000204857,0.000359509,0.002640139,0.330461688,0.000240038,0.000311481,0.000365165,9.93275E-05,0.170320133
510,0.000149906,0.000237326,0.000380023,0.00216675,0.362072514,0.00015461,0.000389986,0.0003098,9.60313E-05,0.177192279
512,0.000204422,0.000303259,0.000366245,0.001760828,0.390725434,0.000236893,0.000387592,0.000339388,9.52571E-05,0.184391974
514,0.000165454,5.587E-05,0.000227724,0.001597892,0.41396477,0.000194271,0.000392244,0.000476874,0.000110377,0.191101099
516,0.000140752,0.000200317,0.000260821,0.001296707,0.430639361,0.000152249,0.000364169,0.000260004,9.60286E-05,0.198088492
517,0.000135211,0.000177545,1.13073E-05,0.001375246,0.439709352,0.000192925,0.000455548,0.000338758,0.000108154,0.204976834
519,0.000198207,0.000177249,0.000248346,0.001161728,0.440025226,0.000243123,0.000322966,0.00032784,0.000109612,0.211869861
521,0.000150299,0.000121806,0.00028209,0.000856258,0.432370165,0.000340856,0.000322826,0.000313901,0.000104469,0.218272462
523,7.17907E-05,0.000132985,0.000316192,0.000786506,0.417352398,0.000211625,0.000329677,0.000307246,8.87051E-05,0.224587476
525,0.000142154,0.000188771,0.000226301,0.000741022,0.396257167,0.000224706,0.000363366,0.000318235,9.45394E-05,0.230638606
527,0.000113392,0.000233916,0.000283761,0.000660746,0.371728593,0.000203185,0.000377757,0.000374748,9.37364E-05,0.236329342
529,0.000158723,0.000201339,0.000296347,0.000592422,0.345240969,0.000200848,0.000399304,0.000233456,9.26582E-05,0.241609313
530,9.36439E-05,0.000269837,0.000252048,0.000726481,0.318819905,0.000208292,0.000461567,0.000332726,9.51686E-05,0.246702364
532,0.000216329,0.000135731,0.000380349,0.000730857,0.29278502,0.000225666,0.000430698,0.000295972,0.000111916,0.251396478
534,0.00023536,0.000341628,0.000406136,0.000591062,0.268617933,0.000275881,0.000589451,0.000400853,0.000116418,0.256078322
536,0.000392822,0.000550666,0.000502673,0.000960016,0.245749452,0.000611446,0.000955588,0.000718318,0.000187426,0.260342876
538,0.000791903,0.001514831,0.000836608,0.001653604,0.225170882,0.001315031,0.001616801,0.001408457,0.000333365,0.265054929
540,0.001174454,0.002227204,0.001211986,0.002198627,0.205077682,0.001778077,0.002324167,0.001739947,0.000474158,0.268776822
542,0.00149315,0.003281797,0.001690041,0.003139879,0.186371165,0.00246749,0.003156312,0.002561289,0.000629683,0.272361741
543,0.001603614,0.003133312,0.001463375,0.003231005,0.167589572,0.002347628,0.003290648,0.002658291,0.000625208,0.274597983
545,0.001357866,0.002874647,0.001220517,0.0026517,0.149803899,0.002096099,0.002971702,0.002249907,0.00054079,0.275961311
547,0.000896905,0.001922216,0.000899287,0.001754407,0.132260524,0.001443741,0.001963648,0.001532757,0.000367002,0.276448389
549,0.000591022,0.00091525,0.000609319,0.000995345,0.116454705,0.000873016,0.001219785,0.000775501,0.000233669,0.276565095
551,0.000353421,0.000566684,0.000338936,0.000495874,0.10225466,0.000705747,0.000850231,0.000675413,0.000158136,0.276567663
553,0.000216766,0.000373111,0.000240791,0.000421571,0.089803538,0.000404102,0.000473579,0.000666375,0.000110384,0.276513302
555,0.000242096,0.000138126,0.000268702,0.000359129,0.079125445,0.00042947,0.000485613,0.000301194,9.06031E-05,0.276465535
556,6.45353E-05,0.000126791,6.45994E-05,0.000214888,0.06903084,0.000444491,0.000384728,0.000233031,7.91896E-05,0.27611012
558,0.000114544,-2.56082E-05,0.000130473,0.000122066,0.060822828,0.000277353,0.000182834,0.000358976,8.08123E-05,0.275782652
560,0.000179524,5.17303E-05,9.22473E-05,0.000260282,0.053262203,0.000449692,0.000369336,0.00029812,6.67439E-05,0.275064323
562,0.00016726,-0.000169848,0.000146447,0.000235272,0.046878666,0.000450581,0.000264297,0.000240128,6.46369E-05,0.274562482
564,0.000103857,6.60147E-05,-1.34537E-05,0.000111883,0.041252529,0.000504249,0.000314215,0.000193305,5.5336E-05,0.273897843
566,0.000135866,-0.000133466,-6.80003E-05,2.82752E-05,0.036540769,0.0004755,0.000341456,0.000299348,8.0507E-05,0.273254092
567,0.000176953,-0.000121475,0.000302577,0.000243051,0.032140273,0.000742455,0.000297126,0.000206022,6.87704E-05,0.27286295
569,0.000132693,5.46226E-05,8.349E-05,2.89299E-05,0.028211385,0.00082123,0.000471234,0.000302026,7.18223E-05,0.272179726
571,0.000219601,0.000110584,8.4513E-05,5.85688E-05,0.024521498,0.001000704,0.000534578,0.000266973,7.65647E-05,0.271259213
573,0.000187865,0.000252001,0.000271053,0.000163127,0.022089966,0.001516294,0.000566415,0.000353255,8.42185E-05,0.270494455
575,0.000203512,0.000227003,0.0001012,0.000420798,0.01957192,0.001783279,0.000641535,0.000481738,0.000115662,0.269794184
577,0.000270714,0.000417208,4.39791E-05,0.000320021,0.017281257,0.002312616,0.001001466,0.000466081,0.000136435,0.269087763
579,9.00576E-05,0.000335732,0.000163617,0.00029378,0.015257004,0.002958039,0.000998753,0.000559298,0.000153547,0.267972015
580,0.000285722,0.000459409,0.000211415,0.000753501,0.013442015,0.003704311,0.00103162,0.000623226,0.000144441,0.267047679
582,0.000378486,0.000632288,0.000122723,0.000574081,0.012279452,0.004505315,0.001218149,0.000764412,0.000151431,0.266021532
584,0.000382335,0.000520249,0.000498945,0.000599707,0.011185063,0.005643347,0.001529458,0.000853217,0.000170262,0.265165024
586,0.000374401,0.000606849,0.000253692,0.000445025,0.009675035,0.006749956,0.001425715,0.000538038,0.000168283,0.263901159
588,0.00031009,0.000775683,0.000193571,0.00021799,0.008555243,0.007958974,0.001478713,0.000690383,0.000146225,0.262201194
590,0.000367769,0.000273884,0.000246252,0.000324247,0.008006716,0.009844922,0.001696628,0.000577151,0.000145639,0.261269858
591,0.000283321,0.000246012,0.000200547,0.000399574,0.006761895,0.011531977,0.001863776,0.000582429,0.000147991,0.259234429
593,0.000239535,0.000267183,0.000221209,8.84431E-05,0.005861409,0.013792969,0.002155981,0.000530595,0.000124607,0.257592738
595,0.000262267,0.00022105,0.000242575,0.000126081,0.005400009,0.016434078,0.00243815,0.000709784,0.000114026,0.255430587
597,0.000307105,0.000363591,0.000105856,0.000348459,0.004842497,0.019729058,0.002637117,0.000582494,0.000108137,0.253620805
599,0.000144096,0.000158644,1.79619E-05,9.33589E-05,0.004183722,0.023537518,0.003020434,0.000560086,0.000107486,0.250558687
601,0.000229688,0.00010765,-0.000201107,7.60202E-05,0.003758582,0.028109933,0.00380023,0.000335343,0.00010734,0.248257405
602,0.000213997,0.000109534,-5.58071E-05,9.66879E-05,0.003275106,0.033622834,0.004507558,0.000534563,9.78165E-05,0.24497236
604,0.000154642,0.000111401,0.000189195,0.000177005,0.003455072,0.040133486,0.005578607,0.000537892,0.000104367,0.241595711
606,0.000366786,0.000943662,0.00034617,0.000639736,0.003848572,0.047804807,0.007141663,0.00106414,0.000221484,0.238724047
608,0.001218369,0.0023966,0.001133141,0.002010599,0.005106055,0.056962612,0.010015574,0.002215814,0.000515229,0.233746205
610,0.001546057,0.003075241,0.001408157,0.002577133,0.00529193,0.065753734,0.012101362,0.002764781,0.000615494,0.225895973
611,0.001434319,0.002566682,0.001187002,0.002175038,0.004818091,0.07501731,0.013438495,0.002454005,0.000587684,0.2169906
613,0.00089511,0.001320768,0.000652534,0.000869103,0.002854267,0.084682031,0.013799451,0.001589632,0.000324965,0.209411101
615,0.000559519,0.00068904,0.000474968,0.000257603,0.001693671,0.09616071,0.015916052,0.001111097,0.000196524,0.202129891
617,0.000338411,0.000328084,0.000104473,-6.51615E-05,0.001302393,0.109096233,0.018312252,0.001060345,0.000163794,0.196113952
619,0.000246187,-0.000248748,-0.000126736,6.58725E-05,0.001247309,0.123662531,0.021632344,0.000852366,0.000141391,0.190763005
621,0.000426257,-0.000167491,0.000277342,-0.000110886,0.001003165,0.139984925,0.026059092,0.000873938,0.000166206,0.18481007
622,0.000325866,-0.000105636,-0.000236814,-0.00035807,0.00077689,0.158284312,0.031060751,0.001053021,0.000149664,0.178966972
624,0.000236562,-0.000127811,0.000130238,-0.000248207,0.000783308,0.177459948,0.036602388,0.001021906,0.000138296,0.173242245
626,0.000297904,-4.29208E-05,4.3736E-05,-0.000363716,0.000310873,0.197088198,0.043808126,0.001183274,0.000153788,0.168271819
628,0.000369875,-6.48122E-05,0.000286187,0.000274613,0.000409248,0.212422003,0.051955045,0.001110436,0.000140614,0.163270402
630,0.000442494,4.34678E-05,-0.000177173,-0.00034533,0.000581234,0.219199359,0.061512983,0.001090028,0.000141102,0.157472712
631,0.000208962,-0.000284069,-0.000155865,-0.000370344,-2.43491E-05,0.213627616,0.071908479,0.00065347,8.61963E-05,0.151707423
633,0.00010838,-0.000263503,-0.000246132,-0.00072106,-9.78739E-05,0.194741616,0.084097745,0.001053415,6.38815E-05,0.145602327
635,0.000176911,-0.00017646,-0.000314669,-0.000584118,-0.000221208,0.166347274,0.098636681,0.000810796,6.23564E-05,0.139556119
637,0.000150326,-0.000310108,-0.000451426,-0.000868144,-0.000592378,0.134100536,0.114683375,0.000876321,4.07756E-05,0.134063708
639,0.000174948,-0.000711694,-0.000475919,-0.00063608,-0.000247825,0.103412637,0.133290078,0.00104615,3.61889E-05,0.128994984
641,0.000137765,-0.00066989,-0.000500583,-0.000922469,-0.000572285,0.078001197,0.153168686,0.001182511,6.89981E-05,0.123426951
642,0.000259369,-0.00017937,-0.000525484,-0.000593753,-0.000249841,0.058434203,0.175287968,0.001250224,5.23295E-05,0.119022242
644,0.00020839,-0.000292734,-0.000275348,-0.000238526,-0.000577112,0.04407248,0.200709106,0.001662465,8.14236E-05,0.114285137
646,0.000237275,-0.000610817,-0.000253578,-0.000431345,-0.000453756,0.033503234,0.229545973,0.001599732,7.95716E-05,0.110158733
648,0.000182371,-0.000227383,4.63402E-05,-0.000939348,-0.000608094,0.025806472,0.264200245,0.001770807,0.000108007,0.10640569
650,0.000123445,-0.000411606,-0.000535929,-0.000460222,-0.000407691,0.019754444,0.304334563,0.002172614,0.000112001,0.102922516
651,6.03369E-05,-0.000690334,-0.000211033,-0.000950621,-0.000897446,0.015215848,0.349448159,0.002387021,0.000108547,0.098832959
653,0.000182284,-0.000880573,-0.000826458,-0.000613658,-0.000697185,0.011498752,0.398561918,0.002735867,0.000138637,0.095411269
655,0.000129676,-0.00046708,-0.000452153,-0.000692666,-0.000546491,0.008912753,0.448028898,0.00316464,0.000175802,0.092337667
657,7.26645E-05,-0.000518226,-0.000480062,-0.001097877,-0.000629955,0.006948751,0.490972528,0.003837708,0.000178869,0.088593799
659,0.000414447,-0.000309128,-0.000508843,-0.001007533,-0.00052994,0.005476155,0.518065647,0.004429649,0.000263031,0.085449276
660,0.000263087,-0.000288288,-0.000195842,-0.00068709,-0.000535399,0.00423844,0.518199688,0.005051531,0.000305621,0.081746315
662,0.000340945,-0.000315784,-0.000519801,-0.000771922,-0.000757892,0.00337168,0.48463602,0.006030865,0.000354534,0.078805652
664,4.92845E-05,-0.000294952,-0.000500923,-0.00085919,-0.000712109,0.002550011,0.419445949,0.006998271,0.000365205,0.074927584
666,0.000287909,-0.000821318,-0.000177528,-0.000711813,-0.000942928,0.002234487,0.337975246,0.007853813,0.000433611,0.071598876
668,0.000112791,-0.000731268,-0.000693766,-0.001095134,-0.000730557,0.001933308,0.258004517,0.009324023,0.000528843,0.068621897
669,0.000149816,-0.000817952,-0.000390697,-0.000812277,-0.000968409,0.001362353,0.189979087,0.010741471,0.000560862,0.065225753
671,0.00011994,-0.001114593,-0.000369783,-0.000741338,-0.001184224,0.001093401,0.138798976,0.012313786,0.00061562,0.061931304
673,0.000166272,-0.000552152,-0.000509054,-0.000946941,-0.00117193,0.001056644,0.101323274,0.01402223,0.0006586,0.058521052
675,0.000123425,-0.000586824,-0.000543608,-0.000847639,-0.000772788,0.000805862,0.074843602,0.016502059,0.00075626,0.0558416
677,0.000196178,-0.000378864,-0.000579089,-0.001003295,-0.000572943,0.000555339,0.056031322,0.01900131,0.000802842,0.053239219
678,0.000131264,-0.000658867,-0.00033569,-0.000843314,-0.00091772,0.000751152,0.041667065,0.021798684,0.000831589,0.050627818
680,2.57677E-05,-0.000835312,-0.000567451,-0.000884817,-0.000992841,0.000349181,0.031542079,0.025457132,0.000864025,0.047442113
682,0.00017853,-0.000649319,-0.000575349,-0.001405507,-0.00132124,0.000426458,0.023683472,0.029038978,0.000946117,0.044996279
684,0.000119157,-0.000686706,-0.00061228,-0.000939564,-0.000701431,0.000505617,0.017789839,0.033549291,0.001003578,0.042889442
686,0.000308478,-0.001159417,-0.000679326,-0.001596569,-0.000742865,8.26132E-05,0.01372741,0.038248066,0.00098997,0.040580763
687,-4.97899E-05,-0.001056464,-0.000448553,-0.000839307,-0.000817512,0.000234196,0.01058085,0.043560099,0.001048597,0.038123671
689,0.000210679,-0.000682959,-0.000332836,-0.000880703,-0.000893373,0.000355456,0.008356488,0.049589128,0.00112349,0.036357305
691,1.38936E-05,-0.000450391,-0.000520137,-0.000985973,-0.001304864,0.000179716,0.00657419,0.056092714,0.001184916,0.034127228
693,3.27593E-05,-0.000819227,-0.00061836,-0.001253459,-0.001014294,0.000345916,0.004928322,0.063487731,0.001227296,0.03252589
694,0.000113426,-0.000367695,-0.000218562,-0.00081143,-0.001126736,0.000104799,0.00393782,0.070538226,0.001240417,0.03074374
696,0.00024802,-0.000896777,-0.000535681,-0.001048193,-0.001240484,0.00026441,0.003164542,0.078730307,0.001284874,0.029216387
698,0.000149128,-0.000654969,-0.001017002,-0.001387572,-0.001077371,0.000231124,0.002393795,0.087441523,0.001344611,0.027263607
700,5.81899E-05,-0.000534464,-0.000736832,-0.001098977,-0.001471368,2.6882E-05,0.001683481,0.096966752,0.001369345,0.025736818
702,0.000542308,-0.000886921,-0.000645547,-0.001308569,-0.001270667,0.000162506,0.001206155,0.106656295,0.001516577,0.024651626
703,0.000127924,-0.000733689,-0.000650106,-0.001216441,-0.001564007,0.000445502,0.001138757,0.11731689,0.001562942,0.022990382
705,0.000331885,-0.000770776,-0.000458158,-0.000918513,-0.001073594,0.000329526,0.001413984,0.128796555,0.001581451,0.021590127
707,0.000169504,-0.00025858,-0.000494045,-0.000719,-0.001332627,0.000304011,0.000826931,0.14195022,0.001605979,0.020913504
709,0.000290967,-0.000195151,-0.000430857,-0.001343658,-0.000688613,0.000296647,0.000909522,0.155738289,0.001703186,0.018910629
711,0.000413887,-0.000752662,-0.000866994,-0.001317226,-0.00113041,0.000205194,0.000564633,0.171453409,0.001701788,0.017804301
712,0.000243755,-0.000888955,-0.000603891,-0.000837012,-0.000953875,-5.63037E-05,0.000607258,0.189053915,0.001756553,0.017148636
714,0.000372973,-0.000496878,-0.000911367,-0.001193006,-0.001254989,0.000132177,0.00041388,0.20745083,0.001823354,0.015848978
716,5.65441E-05,-0.000499908,-0.000713163,-0.000847256,-0.001039822,-6.64916E-05,0.000337088,0.228119275,0.00190842,0.014297226
718,3.62068E-05,-0.001441997,-0.000922636,-0.001207757,-0.001270507,2.86739E-05,-0.000139666,0.249984147,0.001946214,0.013675441
719,0.000265432,-0.000472406,-0.000103152,-0.001000808,-0.001203206,0.000134644,-6.02289E-05,0.27485276,0.002093639,0.012943015
721,7.33178E-05,-0.001086514,-0.000761165,-0.001078975,-0.001437709,0.000164515,-0.000161611,0.301029756,0.002202112,0.01141284
723,0.000305602,-0.000580739,-0.000522148,-0.001302685,-0.001712958,0.000155784,-0.000447147,0.327090117,0.002376155,0.010620547
725,9.54181E-05,-0.00075611,-0.000665406,-0.000873732,-0.001148909,-0.000215504,-0.000163587,0.351838545,0.002574177,0.010095304
726,0.000346504,-0.000898613,-0.000140874,-0.00098848,-0.001116862,-0.000118209,-6.16902E-05,0.374672968,0.002739198,0.009384597
728,-0.000123258,-0.000938112,-0.001026738,-0.001324946,-0.001200203,0.0003466,-0.000310083,0.395737079,0.002910164,0.008487319
730,0.000290747,-0.000663252,-0.000106713,-0.001553026,-0.001050245,0.000139291,-0.000332308,0.409675884,0.003174552,0.007998614
732,0.000167535,-0.00080589,-0.000714083,-0.001076343,-0.001327483,9.9866E-05,4.1694E-05,0.41263961,0.003346537,0.00693215
734,4.87787E-05,-0.000702784,-0.001074196,-0.001526091,-0.000861423,-6.00915E-05,-0.000188161,0.406894164,0.003560011,0.006490929
735,9.22861E-05,-0.001091071,-0.000645557,-0.001379424,-0.001294218,-0.00014044,-0.000586334,0.390731502,0.003791357,0.005826385
737,0.000260631,-0.00105611,-0.000717445,-0.001305151,-0.001333733,0,0.000251342,0.363643977,0.004002237,0.005472337
739,0.000140973,-0.000808525,-0.000286567,-0.001154336,-0.001331824,-0.000521002,-0.000250982,0.328146975,0.004225308,0.004932245
741,0.000308108,-0.001121457,-0.0003214,-0.001076553,-0.00124964,1.99771E-05,-0.000479575,0.288953325,0.004452554,0.004669504
742,0.000123713,-0.000627715,-0.000142141,-0.000554097,-0.001204631,0.000427394,-0.000497963,0.249400926,0.004686278,0.004083309
744,0.000240418,-0.00069277,-0.000635334,-0.001467655,-0.000810552,-0.000207324,6.18267E-05,0.21230976,0.004967315,0.004405487
746,0.000190672,-0.000824136,-0.000559858,-0.001782331,-0.001147918,0.000225105,0,0.17789088,0.005233652,0.003778141
748,0.000293539,-0.000543752,-0.000588709,-0.001511942,-0.001098199,0.000339015,-0.000424616,0.147227284,0.005574533,0.003876355
749,9.32317E-05,-0.000772366,-0.000410627,-0.001707423,-0.001272261,-7.65694E-05,-0.000419576,0.119547163,0.005902451,0.003321891
751,3.57856E-05,-0.000563459,-0.000844353,-0.001474578,-0.001698922,-9.44678E-05,-0.000118321,0.09623875,0.00622396,0.002776871
753,8.57102E-05,-0.000555695,-0.001032571,-0.001177257,-0.000692059,0.000121116,-5.83451E-05,0.076217242,0.006538455,0.002672617
755,0.000218782,-0.000644753,-0.001182596,-0.001502521,-0.001077672,-0.000349154,-7.67218E-05,0.05991289,0.006847895,0.002863584
756,-2.45297E-05,-0.000795182,-0.000583405,-0.001111848,-0.001063286,9.97217E-05,-5.67733E-05,0.04710422,0.00717994,0.002889571
758,2.42396E-05,-0.000628623,-0.000896786,-0.000898936,-0.001050711,-0.000295627,-0.00031791,0.036883275,0.007465948,0.002189138
760,6.24288E-05,-0.000560426,-0.000983508,-0.001187279,-0.001006111,0.000133109,-0.000333437,0.028669747,0.007788561,0.001445664
762,8.59097E-05,-0.00064982,-0.000315315,-0.001081664,-0.001448189,-0.00017639,-0.000147285,0.022642823,0.008150717,0.001155685
763,9.52594E-06,-0.000957289,-0.000440535,-0.001079444,-0.001273167,-0.000149624,1.83729E-05,0.017584565,0.008851667,0.001277996
765,0.000214978,-0.000960169,-0.001041527,-0.001017074,-0.001346024,0.000203041,3.68563E-05,0.014183303,0.009888814,0.001313105
767,0.000472076,-0.000655856,-0.000922907,-0.001422534,-0.001705248,2.67043E-05,-0.000148654,0.010867169,0.01116723,0.000851172
769,0.000239303,-0.000696591,-0.000258117,-0.000670795,-0.000917341,0.000171466,-0.000263742,0.009084243,0.011978459,0.000479414
770,3.98089E-05,-0.000451671,-0.000920498,-0.001059401,-0.001186343,-0.000266663,-0.000479877,0.007487282,0.012801602,0.000227959
772,5.09132E-06,-0.000759211,-0.000302725,-0.001293723,-0.000809207,4.70408E-05,-0.000294593,0.006539817,0.013733854,0.000199917
774,0.000141072,-0.001050128,-0.000690369,-0.001722371,-0.001132411,0.000164134,-0.000161238,0.005170715,0.014491671,0.00037613
776,0.000279093,-0.000835143,-0.00070917,-0.000884638,-0.001279575,7.93432E-05,-0.000621107,0.004661137,0.015244923,7.02496E-05
777,-3.30808E-05,-0.001000891,-0.000764924,-0.001325261,-0.001513611,9.1694E-05,-0.000425358,0.003663518,0.015805569,0.000108247
779,0.00032201,-0.000695908,-0.000821091,-0.000853543,-0.001142768,7.30745E-05,-0.000523004,0.003194699,0.015538773,-0.000295769
781,0.000305849,-0.000785695,-0.00041937,-0.001268204,-0.001167333,-2.13272E-05,-0.000645548,0.002820484,0.015671085,3.77658E-05
782,0.000381139,-0.00057025,-0.000890989,-0.00140944,-0.000889601,0.000173366,-0.000452376,0.002617217,0.016020966,-0.000460489
784,0.000456959,-0.000500189,-0.000940963,-0.001181934,-0.000728856,9.86968E-05,-0.000480735,0.00230126,0.016281608,-0.000504891
786,0.000479271,-0.000854512,-0.001147794,-0.000946298,-0.000908901,0.000177127,-0.000369753,0.001984326,0.016934178,-0.000274446
788,0.000345302,-0.001099732,-0.000680375,-0.001664154,-0.001531789,0.000291053,-0.000397259,0.001761834,0.018376694,-0.000832553
789,0.000204509,-0.00108484,-0.001719577,-0.00178754,-0.001253609,-0.000148873,-0.000215149,0.001289178,0.020316819,-0.000892254
791,0.000175449,-0.000758338,-0.00064395,-0.001204923,-0.001690033,0.000384247,-0.000275727,0.000984296,0.023017687,-0.00106315